◎ 片名: 女子监狱 第七季 Orange Is the New Black Season 7

◎ 导演: 安德鲁·麦卡锡 / 迈克尔·特里姆 / 康斯坦丁·马克利斯

◎ 编剧: 杰姬·科恩

◎ 类型: 剧情 / 喜剧 / 同性 / 犯罪

◎ 制片国家/地区: 美国

◎ 语言: 英语

◎ 首播: 2019-07-26(美国)

◎ 集数: 13

◎ 单集片长: 60分钟

◎ 又名: 铁窗红颜

◎ IMDB 链接： https://www.imdb.com/title/tt5440238

◎ 剧情: 
Netflix宣布一口气续订《女子监狱》第5﹑6﹑7季。
 

◎ 豆瓣链接 (9.5): https://movie.douban.com/subject/26723681/

================ 资源 ================ 

Google Drive 1 ~ 7 全

https://drive.google.com/drive/folders/1LJBFH147cj3dO0jqM3wf42CQmTDS0tIp?usp=sharing

