◎ 片名: 逍遥法外 第五季 How to Get Away with Murder Season 5

◎ 导演: 杰特·威尔金森

◎ 编剧: 皮特·诺沃克

◎ 类型: 剧情 / 悬疑 / 犯罪

◎ 制片国家/地区: 美国

◎ 语言: 英语

◎ 首播: 2018-09-27(美国)

◎ 集数: 15

◎ 单集片长: 43分钟

◎ 又名: 天才刑法班

◎ IMDB 链接： https://www.imdb.com/title/tt8405182

◎ 剧情: 
ABC宣布续订#逍遥法外##How to get away with murder#第五季！
 

◎ 豆瓣链接 (8.8): https://movie.douban.com/subject/30220024/

================ 资源 ================ 
GoogleDrive 1-5 季

https://drive.google.com/drive/folders/1PWEm2AtXTS2_-lzRNfkCMOMJr_y_9Et9?usp=sharing
