◎ 片名: 爱玛。 Emma.

◎ 导演: 奥特姆·代·怀尔德

◎ 编剧: Eleanor Catton / 简·奥斯汀

◎ 类型: 剧情 / 喜剧

◎ 制片国家/地区: 英国

◎ 语言: 英语

◎ 上映日期: 2020-02-14(英国) / 2020-02-21(美国)

◎ 片长: 124分钟

◎ 又名: 艾玛(台) / EMMA：上流贵族(港)

◎ IMDB 链接： https://www.imdb.com/title/tt9214832

◎ 剧情: 
改编自简·奥斯汀备受喜爱的喜剧，重新描绘出寻找真爱与幸福结局的故事。 漂亮，聪颖，富有的爱玛·伍德豪斯在这个无聊平庸的小镇裡就像一只静不下来的女王蜂。 然而，在这充斥着反讽社会阶层与青涩的成长故事裡，爱玛在经历过一连串乱点鸳鸯和误判情势后，发现真爱一直在身边。
 

◎ 豆瓣链接 (7.2): https://douban.com/subject/30361878/

================ 资源 ================ 
## 1080p 磁链
magnet:?xt=urn:btih:4961B8A6971D0F44E50987F81D212180C2835001

## 1080 度盘
https://pan.baidu.com/s/1ihwaVR457YuMmJS4DMInnw kv7o
