◎ 片名: 血色旅程 Bloodride

◎ 导演: Geir Henning Hopland / Atle Knudsen

◎ 编剧: 克耶蒂尔·因达吉 / Atle Knudsen

◎ 类型: 恐怖

◎ 制片国家/地区: 挪威

◎ 语言: 挪威语

◎ 首播: 2020-03-13(Netflix)

◎ 集数: 6

◎ 又名: X 巴士（台） / 惊栗巴士游（港）

◎ IMDB 链接： https://www.imdb.com/title/tt9815502

◎ 剧情: 
一名沉默的司机带着命中注定的乘客，前往一个未知的目的地。剧集由六个恐怖的故事组成。该剧将于3月13日播出。
 

◎ 豆瓣链接 (): https://movie.douban.com/subject/33418681/

================ 1080p ================

1080p.NF.WEBRip 内嵌多国字幕 
Google Drive https://drive.google.com/drive/folders/1IBOEIkULmHDjGIUcz3PoCXZh_MjlXQgK



