◎ 片名: 悲惨世界 Les misérables

◎ 导演: 拉吉·利

◎ 编剧: 拉吉·利 / 吉奥达诺·戈德里尼 / 亚历克西斯·曼蒂

◎ 类型: 剧情

◎ 制片国家/地区: 法国

◎ 语言: 法语

◎ 上映日期: 2019-05-15(戛纳电影节) / 2019-11-20(法国)

◎ 片长: 103分钟

◎ IMDB 链接： https://www.imdb.com/title/tt10199590

◎ 剧情: 
刚从瑟堡来的斯蒂芬，加入了巴黎93省圣德尼的“反犯罪特种部队”。在这里，他遇到了新队友克里斯和瓦达，两位经验丰富的警察。但他很快就感受到了这个街区不同帮派间剑拔弩张的紧张氛围。在一次出警的行动中，局面变得不可控制，而这个事件意外地被一架无人机记录下来，进而引发了更为剧烈的冲突。
 

◎ 豆瓣链接 (8.3): https://douban.com/subject/33417030/

================ 资源 ================ 
## 1080p 3.7GB  中文字幕

magnet:?xt=urn:btih:EB41DA913917939ABFBB85739448745E28CDD834